\relax 
\providecommand\hyper@newdestlabel[2]{}
\providecommand\HyperFirstAtBeginDocument{\AtBeginDocument}
\HyperFirstAtBeginDocument{\ifx\hyper@anchor\@undefined
\global\let\oldcontentsline\contentsline
\gdef\contentsline#1#2#3#4{\oldcontentsline{#1}{#2}{#3}}
\global\let\oldnewlabel\newlabel
\gdef\newlabel#1#2{\newlabelxx{#1}#2}
\gdef\newlabelxx#1#2#3#4#5#6{\oldnewlabel{#1}{{#2}{#3}}}
\AtEndDocument{\ifx\hyper@anchor\@undefined
\let\contentsline\oldcontentsline
\let\newlabel\oldnewlabel
\fi}
\fi}
\global\let\hyper@last\relax 
\gdef\HyperFirstAtBeginDocument#1{#1}
\providecommand\HyField@AuxAddToFields[1]{}
\providecommand\HyField@AuxAddToCoFields[2]{}
\@writefile{toc}{\contentsline {section}{Objectif}{1}{section*.1}\protected@file@percent }
\newlabel{header-n2}{{}{1}{Objectif}{section*.1}{}}
\@writefile{toc}{\contentsline {section}{Fonctionnement du d\IeC {\'e}tecteur de visages}{1}{section*.2}\protected@file@percent }
\newlabel{header-n10}{{}{1}{Fonctionnement du détecteur de visages}{section*.2}{}}
\@writefile{toc}{\contentsline {section}{Impl\IeC {\'e}mentation du d\IeC {\'e}tecteur de visages}{2}{section*.3}\protected@file@percent }
\newlabel{header-n14}{{}{2}{Implémentation du détecteur de visages}{section*.3}{}}
\@writefile{toc}{\contentsline {subsection}{Biblioth\IeC {\`e}que }{2}{section*.4}\protected@file@percent }
\newlabel{header-n16}{{}{2}{Bibliothèque}{section*.4}{}}
\@writefile{toc}{\contentsline {subsubsection}{API: lecture, \IeC {\'e}criture, classes partag\IeC {\'e}es}{2}{section*.5}\protected@file@percent }
\newlabel{header-n17}{{}{2}{API: lecture, écriture, classes partagées}{section*.5}{}}
\@writefile{toc}{\contentsline {subsubsection}{FaceDetectorTrainer: encapsulation du processus d'apprentissage}{2}{section*.6}\protected@file@percent }
\newlabel{header-n27}{{}{2}{FaceDetectorTrainer: encapsulation du processus d'apprentissage}{section*.6}{}}
\@writefile{toc}{\contentsline {subsubsection}{FaceDetector : encapsulation du processus de d\IeC {\'e}tection}{3}{section*.7}\protected@file@percent }
\newlabel{header-n44}{{}{3}{FaceDetector : encapsulation du processus de détection}{section*.7}{}}
\@writefile{toc}{\contentsline {subsection}{Utilisation}{4}{section*.8}\protected@file@percent }
\newlabel{header-n60}{{}{4}{Utilisation}{section*.8}{}}
\@writefile{toc}{\contentsline {subsubsection}{train.py}{4}{section*.9}\protected@file@percent }
\newlabel{header-n62}{{}{4}{train.py}{section*.9}{}}
\@writefile{toc}{\contentsline {subsubsection}{test.py}{4}{section*.10}\protected@file@percent }
\newlabel{header-n76}{{}{4}{test.py}{section*.10}{}}
\@writefile{toc}{\contentsline {section}{R\IeC {\'e}sultats}{5}{section*.11}\protected@file@percent }
\newlabel{header-n88}{{}{5}{Résultats}{section*.11}{}}
\@writefile{toc}{\contentsline {subsection}{Choix des param\IeC {\`e}tres}{5}{section*.12}\protected@file@percent }
\newlabel{header-n89}{{}{5}{Choix des paramètres}{section*.12}{}}
\@writefile{toc}{\contentsline {subsection}{Probl\IeC {\`e}mes notables et performances}{7}{section*.13}\protected@file@percent }
\newlabel{header-n102}{{}{7}{Problèmes notables et performances}{section*.13}{}}
\@writefile{toc}{\contentsline {subsection}{Pistes d'am\IeC {\'e}lioration}{7}{section*.14}\protected@file@percent }
\newlabel{header-n106}{{}{7}{Pistes d'amélioration}{section*.14}{}}
