238 220 28 28
240 361 27 27
316 712 32 32
234 287 29 29
305 141 35 35
304 311 37 37
304 648 35 35
297 556 37 37
300 417 36 36
301 490 33 33
303 224 32 32
272 373 29 29
276 35 28 28
275 442 28 28
277 187 30 30
279 515 30 30
275 274 34 34
200 652 27 27
204 123 27 27
279 601 35 35
284 681 33 33
286 106 31 31
222 181 25 25
226 421 26 26
224 607 26 26
223 687 30 30
227 488 29 29
225 551 29 29
304 62 28 28
